member_donation member:0 amount:20.00 account:BANK txnid:d67d180193c2d280c4215b95276912e0acee1586
member_donation member:26 amount:20.00 account:BANK txnid:e1b2113af0885eb652deae8447814ecab161018d
member_donation member:39 amount:10.00 account:BANK txnid:dd23cee66609300760d69db0081741a779d81595
member_donation member:22 amount:10.00 account:BANK txnid:42485bdc614a14fe01ada80e71d8965ac6af1726
member_donation member:10 amount:10.00 account:BANK txnid:616066c625c2f45ffbea70796f0ee93b5c157298
member_donation member:1 amount:20.00 account:BANK txnid:94c28224ed253721db56e9c9f63c7e27f13a3b49
member_donation member:3 amount:20.00 account:BANK txnid:12a505f271b2e151f33d08d204454f747fd5bd47
member_donation member:13 amount:10.00 account:BANK txnid:6d2d78badb30cc52ed7c0e2ab246bd5384a4b53b
member_donation member:14 amount:10.00 account:BANK txnid:ad422fcc16a1309ab95cc4b3dba5fe593acd7f87
member_donation member:2 amount:20.00 account:BANK txnid:de10f74bfbb91078ee0ccf5b6277a4f1119b5b63
member_donation member:42 amount:10.00 account:BANK txnid:a63369681f5e2bf48e36f214c2cce0fb9750fb47
member_donation member:43 amount:10.00 account:BANK txnid:458dc6dd2f20e9020c4bf1a7e904d0fd712edc7e
member_donation member:37 amount:10.00 account:BANK txnid:b07ced1d9db8689584ee4b8a714db9f456aa38f5
member_donation member:34 amount:10.00 account:BANK txnid:8fba919d100f1e162c7398092eb8cd51086227cb
member_donation member:4 amount:20.00 account:BANK txnid:05751c9901ce8514a2182fcb48ca572b50288dbb
