member_donation member:62 amount:10.00 account:BANK txnid:c4eace040c268792400c46a89645acba3fd56393
member_donation member:19 amount:10.00 account:BANK txnid:426b9e5056360f28201a6bada8e850b463c08687
member_donation member:9 amount:10.00 account:BANK txnid:15cd4e230fd4098832f1ca18e120e3b3f2635e55
