member_donation member:50 amount:10.00 account:BANK txnid:0235eddad649db6d810d1c161d24d3d3c6e76e15
member_donation member:19 amount:10.00 account:BANK txnid:312775429711e239dd7336aee22d1f566ae6e7b2
member_donation member:62 amount:10.00 account:BANK txnid:27103725bf37f0e0abbe7d57c14b19f5021f57ce
expense type:BANK_CHARGES amount:6.80 account:BANK txnid:2510b5c31c23e852df23981e7bbe2338c94aa807
