external_donation donor:"Anonymous" amount:19.80 account:BANK txnid:308e1f584161fd9dfe59545a0353a577a661aa69
external_donation donor:"Anonymous" amount:10.00 account:BANK txnid:47517a6bce7df33317150e9fbe8cde210fb88077
member_donation member:81 amount:10.00 account:BANK txnid:7372a2a91811eb1028e70fc832b24bd84153074d
