member_donation member:70 amount:10.00 account:BANK txnid:b9629c66a19b82c5dfbf42422a9815a473c4c6ea
external_donation donor:"Anonymous" amount:10.00 account:BANK txnid:967968a9c372fce96171870900e8fd50d6383025
expense type:RENT amount:858.00 account:BANK txnid:d4deabe14621d0cb9d3d0ce7e1eab32be1161b16
