external_donation donor:"Anonymous" amount:19.60 account:BANK txnid:482e3ed99a2aaf6b387d6600dde4b3a26f8dd225
member_donation member:82 amount:60.00 account:BANK txnid:bfa800a35c272eb959557f192e68a6caa2993525
external_donation donor:"Anonymous" amount:10.00 account:BANK txnid:151798f0c8522271e96c3434292b4c037efab5cf
