expense type:ELECTRICITY amount:300.00 account:BANK txnid:66ec27f2690aa5a672ca678f5eb6af3f763f49df
member_donation member:14 amount:10.00 account:BANK txnid:b7d5cd9034e5aee2e13ec177b02ecff620d48a33
member_donation member:3 amount:20.00 account:BANK txnid:8981c5468df5367a7e503d10998c9541ccb59d01
member_donation member:37 amount:10.00 account:BANK txnid:958520c20ad9b62fd04941dc0578eedaee80589a
member_donation member:26 amount:10.00 account:BANK txnid:e7ed4d106dbc05585b0484ea956d97665eff947c
member_donation member:1 amount:30.00 account:BANK txnid:efd7abf2e04e22870694c1340fed2ac2d1279536
member_donation member:13 amount:10.00 account:BANK txnid:3bd701dc66982ae34618ce4e12012b76287e5c72
member_donation member:48 amount:10.00 account:BANK txnid:c6a306cdd467fde93180d8d201bb9d82d435adcd
member_donation member:65 amount:10.00 account:BANK txnid:f678aec1ffa72e7ecbf7c1a9e0f59903d5456519
member_donation member:51 amount:10.00 account:BANK txnid:8661cc217224c996cb3cd00597bf286d66cdc051
member_donation member:2 amount:20.00 account:BANK txnid:70e5a83307ff84c0d2083ed84a7e52f2d83e4085
member_donation member:42 amount:10.00 account:BANK txnid:afd9731d73f2dc2f173708d7cd4296ad14222a87
member_donation member:43 amount:10.00 account:BANK txnid:9df09819d08f7d18cc61be476673087af0f3d496
member_donation member:58 amount:10.00 account:BANK txnid:980958e9d66f6fd8b356b63321fb507123209528
member_donation member:60 amount:10.00 account:BANK txnid:51fb4cbcdf2750c6994f7fb3104f6e7449c521a9
member_donation member:6 amount:20.00 account:BANK txnid:a7641bdcb605ac0601b7c8e61f0fef4c01c2e5be
member_donation member:4 amount:20.00 account:BANK txnid:19426bb8ca56988175de98c253b887acf4764f54
member_donation member:72 amount:10.00 account:BANK txnid:db77dc22a946d0cca8706163dca9a70295c06e80
member_donation member:66 amount:10.00 account:BANK txnid:755ca31c5d440064fbb3ffeefcb18e4a14d0a41e
expense type:RENT amount:489.00 account:BANK txnid:c03a2e99bc20a3184b6d21c67d5460d01dab01cb
expense type:VIRGIN_MEDIA amount:48.00 account:BANK txnid:9cbfd190e24c0b157d3bbf2ae58020a663032ca4
