external_donation donor:"Anonymous" amount:49.20 account:BANK txnid:491e8d38af0974a6ed0c033297123e8bdc33bb02
member_donation member:79 amount:10.00 account:BANK txnid:b74ea6877558e5dc9c0a0d052502ddc884ff1456
external_donation donor:"Anonymous" amount:10.00 account:BANK txnid:1bba24b0389da737225ef37c19356641ab3b509b
expense type:ELECTRICITY amount:261.72 account:BANK txnid:c06bf541cf4d081d261ff4368ea616d36c042077
