external_donation donor:"Anonymous" amount:9.80 account:BANK txnid:2a2545c7a2d24190203843ddf1c8b47527cbbdd3
member_donation member:65 amount:20.00 account:BANK txnid:485fbc5fde6ab1e65c44d4a06f78c69f62e7cf67
member_donation member:14 amount:10.00 account:BANK txnid:93e33252bb92a807ca691cd60df7f31437287174
member_donation member:37 amount:10.00 account:BANK txnid:c845cbbb6303281fc5ef46520cabfaf84f328dee
member_donation member:3 amount:20.00 account:BANK txnid:6155e66a382549e8c127aae3f024ad38f4bd92d9
member_donation member:1 amount:50.00 account:BANK txnid:7d09cda26eb2702aeb3a283fd3b33e59f3a93c5f
member_donation member:2 amount:60.00 account:BANK txnid:b759f5079da16bdaf9b271586fa8ba6de3eda8d1
member_donation member:51 amount:10.00 account:BANK txnid:748ae13f0a1b4f1fe5c423a298e448d4a5eb5900
member_donation member:6 amount:20.00 account:BANK txnid:3f804de69d645d857d35b50395453890ff4e1666
member_donation member:42 amount:10.00 account:BANK txnid:6f06db36391c5c2c17425b75c77b2af13eee7d7c
member_donation member:58 amount:10.00 account:BANK txnid:01a0a093647935d32d901fda5795b39ab90eda84
member_donation member:43 amount:10.00 account:BANK txnid:601456feb750ae4d30169bf5679a51d7d68322c6
member_donation member:48 amount:10.00 account:BANK txnid:e36e527f1b9a5731fccdd1805ea5e4008d595fe7
member_donation member:13 amount:10.00 account:BANK txnid:f8f59e9bd74ef6f793a9db237e6ef77ec12976c5
member_donation member:60 amount:10.00 account:BANK txnid:79c30ebaa519bba2aeefb5a7a6c6c2a13e63af9e
external_donation donor:"Anonymous" amount:10.00 account:BANK txnid:9e24c3db523e7cbcc00d1c45e3d69c25dbbef008
member_donation member:4 amount:20.00 account:BANK txnid:8644f4a1084a7bcc8ae9319835e57da7e5c5c2ef
member_donation member:66 amount:10.00 account:BANK txnid:ca8ee4ab3e63be0e8c64d8009c5a818b3a56e642
expense type:VIRGIN_MEDIA amount:48.00 account:BANK txnid:a7734c6088302c68d7f99734efc8ac784260e2b5
expense type:RENT amount:858.00 account:BANK txnid:f5738646f9d93072e4624de019b636d7200d286e
