external_donation donor:"Anonymous" amount:10.00 account:BANK txnid:a2db74016553830cb244e0851bdc40b21097e5c3
member_donation member:62 amount:10.00 account:BANK txnid:f495dc2f7037b1c06157bd763b83935dd7a706a1
expense type:BANK_CHARGES amount:6.50 account:BANK txnid:5b795ce924d561686d19ab0ee19eddf25cb77ccc
