external_donation donor:"Anonymous" amount:48.20 account:BANK txnid:81e0e568213eb6df02d62500be63ec1d42176af1
member_donation member:48 amount:10.00 account:BANK txnid:96b3cff61bce9de85688b462ed52ae316fb1279a
member_donation member:14 amount:10.00 account:BANK txnid:0bcae23bd543920bccd2fc71db3cf2728d8094b6
member_donation member:3 amount:20.00 account:BANK txnid:e494423b0d54b0811aa8e27daf2d26966232c7c7
member_donation member:37 amount:10.00 account:BANK txnid:b3b1007bf3991d59911d9b09441c21bcef719903
member_donation member:54 amount:20.00 account:BANK txnid:a250aa6da05f8d911e874b5cf6d8f76d0147d6d7
external_donation donor:"Anonymous" amount:10.00 account:BANK txnid:b6f486b36d0a82e148ac8ddc6db0a5aef1327cb1
member_donation member:13 amount:10.00 account:BANK txnid:fb6b6ddee3480dd960eee781d6c300eecc87b640
member_donation member:43 amount:10.00 account:BANK txnid:c8a509b081f3918a17763d2f454dbdb1e869bb24
member_donation member:1 amount:50.00 account:BANK txnid:b37833880709aadbcaf5010287a1af2cf68b5869
member_donation member:51 amount:10.00 account:BANK txnid:5d099ab203dd4cb2116c14b69c180fe48a13ca98
member_donation member:42 amount:10.00 account:BANK txnid:9e0491ba8d413e2ae067a5429e7ece326c7fafdd
member_donation member:60 amount:10.00 account:BANK txnid:f50709fedb0ad291bef93f3de649920fbe21aa40
member_donation member:6 amount:20.00 account:BANK txnid:06c1d2d2b84df4551745ee2cfc66118be60916f0
member_donation member:4 amount:20.00 account:BANK txnid:662f4186b22012649ba6040dd59a075e9c3438e6
member_donation member:66 amount:10.00 account:BANK txnid:832b972a7c088c6a95fdb672b827b32d9f480b50
expense type:RENT amount:910.00 account:BANK txnid:ab6089470af8a9715f966d7271bf440d1d416c62
expense type:VIRGIN_MEDIA amount:48.00 account:BANK txnid:991e506cdf19e54b03e8f55ff341626f942bdf3f
