external_donation donor:"Anonymous" amount:19.28 account:BANK txnid:fe667cc8a25ca171823d1b81c8c80d15d0c00d39
member_donation member:50 amount:10.00 account:BANK txnid:828e12ee956d1893869303d0baf2e033aad67f71
external_donation donor:"Anonymous" amount:10.00 account:BANK txnid:b29041c9573b6ed588bf915aea02116146553a22
