member_donation member:4 amount:20.00 account:BANK txnid:8f54b45ebdf192102486da66a62f0b7e55fa576b
member_donation member:66 amount:10.00 account:BANK txnid:b1210f4b763f31e56417a2d08bd6db97c4b090cb
external_donation donor:"Anonymous" amount:28.92 account:BANK txnid:fc2f9942d2c390a18282a134c7f05684b7729e5c
external_donation donor:"Anonymous" amount:10.00 account:BANK txnid:025440f9cbe37d8d14231363a1c4325f2ad4211c
member_donation member:1 amount:50.00 account:BANK txnid:bb4a04a994000733fc8dfbb3be1bfc347111924a
member_donation member:3 amount:20.00 account:BANK txnid:6055d93b80f8e47f3871ad9bb0fa5f7edf2380bc
member_donation member:54 amount:20.00 account:BANK txnid:beeda76fffc92fc6a5de0d5c17c4b623256970de
member_donation member:6 amount:20.00 account:BANK txnid:8a7c289acfbcbeb1439889ec170ad193ec094635
member_donation member:48 amount:10.00 account:BANK txnid:2ba3c8c39fd5ac9058b53fa3823fca6c41ac66bb
member_donation member:14 amount:10.00 account:BANK txnid:65b0e1cac774bae04a279e6a7cba5a15f3d0c211
member_donation member:37 amount:10.00 account:BANK txnid:ddf7143951d2ca6a6b15c8b0007236f65ff07b9e
member_donation member:51 amount:10.00 account:BANK txnid:b4685a25159600a86af7db63e85dcb8ed1aa93f2
member_donation member:13 amount:10.00 account:BANK txnid:c341d488fd2464e10454e394b372044cb40faf55
member_donation member:43 amount:10.00 account:BANK txnid:90b5913ee05fd9b2f5894196caed81739508a246
member_donation member:42 amount:10.00 account:BANK txnid:0c166431c2f3aaf9f3a5306d46749c894ca52c74
member_donation member:60 amount:10.00 account:BANK txnid:43a0444de97044fe644e6a12af12c1f544f44e3a
expense type:RENT amount:910.00 account:BANK txnid:2d681b0edc38c0e221da39c411ad8bc293daf051
expense type:VIRGIN_MEDIA amount:48.00 account:BANK txnid:f2e9f16297ee378b22647fca43df1fd4a509208f
