48f0da0a5fadb6cbd9eb15c1287bce4356681960	2024-07-19	Expense	BANK_CHARGES	7.00
918c4875d9830ca2ad6de6d7a73583348b7f6579	2024-07-19	Membership	-	75.86
aa95a8b5b3a441449691b560b74d2901eb0c4488	2024-07-18	Membership	-	34.00
3c5a8de3856a1cc59be8209e9e8e362aa103f155	2024-07-16	Membership	-	174.92
c94dec5fb5efb7f4522e068c187c72177778d687	2024-07-15	Membership	-	70.46
c5f2e0c2af5108d6389ee7c02857a67a2e4ddb8b	2024-07-15	Expense	VIRGIN_MEDIA	39.60
1c20e55e05bdb2a9d004442c0faedf9d9ed53193	2024-07-11	Membership	-	85.00
fc892a42938b280730ce33c4801b8c0e4161751a	2024-07-10	Membership	-	17.00
c6e8a5f3f268f52f8ae916ad0bc2cbd3d95ce479	2024-07-09	Membership	-	221.46
01e1a8c908bce2eedbcaa7bcde0e1fdf56ce197a	2024-07-08	Membership	-	131.07
45f94223c309ff60049ec249a92380939c0c7e93	2024-07-05	Membership	-	111.60
c055f8b1284a2532e5032b3ee1ab269725e89252	2024-07-04	Membership	-	24.13
64607d506afd56e37cbc2c06f60ce1a8d8abe711	2024-07-03	Membership	-	63.05
51e065c0165eedf36f17ea1e6ae56dadd4affe27	2024-07-03	Donation	-	11.70
d315d5da0ce7e5036729b73d5498ba2444cb6064	2024-07-02	Membership	-	77.32
5e71ebd7da4777300bafba7a9aa43103726bd2b9	2024-07-01	Donation	-	2.06
fff1242f681f2d29bd2c0527e27e8f1dd2901cdb	2024-06-28	Membership	-	9.60
025c636e1fa959f4504226b54776e98b646eb30e	2024-06-27	Membership	-	38.66
2799064985593b38938c48ce587493ad7c2a903e	2024-06-27	Membership	-	20.00
9f5d56410cb132a892e538cbaf4d7c262962c8d3	2024-06-26	Membership	-	24.13
99f47202efd8d09665e6529ae200bd95a7795812	2024-06-26	Donation	-	1.38
a33462ac8cc3b699f7d201ad2a44eef91eec6c66	2024-06-25	Membership	-	101.45
8676cc2064ef8bf3d94d56e6a366402290d59d21	2024-06-24	Membership	-	29.06
1944c27e67ff1fe877251d6fbd0771e7835731d8	2024-06-24	Donation	-	1.38
c5a925184284f73762ba4443d9c646c46e93d335	2024-06-21	Membership	-	92.59
9a3634c09ddd47d7b948fb550a6df71f66a39b30	2024-06-20	Expense	BANK_CHARGES	0.26
2e86c9b13cbf72de170142c1b1b302ad0915c381	2024-06-20	Unknown Expense	MIRO.COM US           12.00 VISAXR     1.26716 CD 2619	9.47
a742497665758ef2268115deb5a23fc7f1a4d11e	2024-06-20	Membership	-	24.13
273a6fc040423bf26079ee7f6eb067201d5144ea	2024-06-19	Membership	-	68.46
af8addfed68f06df2dd9c5d548c95fb130acad5c	2024-06-18	Membership	-	86.92
b2b67d8901b486ca73e09139ad28614118118638	2024-06-17	Expense	RENT	1024.83
0949a52f50962f720f16396609385d8b8628ceb9	2024-06-17	Membership	-	14.53
1f5dc593560fe05e8ff5952bc771967ff9da67aa	2024-06-17	Expense	VIRGIN_MEDIA	39.60
c027c88674f7fb309e058276b3d475334169ecb5	2024-06-17	Donation	-	0.98
a739e2ad75d749a3f6bf13a48fd821fe287b08ed	2024-06-14	Membership	-	58.12
834a85dfd74404503660158405b1bfd9b805f35c	2024-06-13	Membership	-	58.12
39574bf3cc4e3dfabd100811f0bfb30cdcf03176	2024-06-12	Membership	-	9.60
0acdd999b9e97f66f2573d9cbebb65a869248138	2024-06-11	Membership	-	179.51
83149a633051673214edc54d974a833cc5aff8cb	2024-06-10	Membership	-	33.99
0df4d3c2a572829817878374b0df1d12f8287413	2024-06-10	Donation	-	50.30
60bf1bb83265a71a95263f405269f8616255001f	2024-06-10	Expense	ELECTRICITY	177.68
a945f6dd24dd64bab4333b593dfe1fbb1f9a87dc	2024-06-07	Membership	-	48.26
1a4c6f13069e5a9fa2989434641e6335200b94ca	2024-06-06	Membership	-	86.52
e923f536eec7fbb955e70b3b5e5d591e73e2afe9	2024-06-06	Donation	-	24.37
43637196cdf184398502c778a92ab27ba31ea23e	2024-06-05	Membership	-	96.78
26f3f14a625bfa0234ec17a189ed6233cee424a7	2024-06-04	Membership	-	96.78
8b53ca47b0390217e754ca1125e16f8f6dcd2aa3	2024-06-03	Membership	-	9.60
cde17610c73b75e007e00b5ce80ab85a97e09313	2024-05-31	Membership	-	33.73
c1b797c2245049b2f66851c8b73bcd8edf3d81e7	2024-05-30	Membership	-	33.99
4ae36dd6712f3ddaa3622b021cdac09e58d69134	2024-05-29	Membership	-	67.46
f7dbcce8e89c0b8f67223351e53425a6fefaf34b	2024-05-28	Membership	-	19.20
fe139a4c32ce317119641cf8448e1d0baf265f37	2024-05-28	Membership	-	20.00
7e5d53ed7f5bea27d163ff14ac35e42f5ceaac12	2024-05-24	Membership	-	24.13
cd8c406124cd69f47667d6f1d2173dbb85fc8f40	2024-05-23	Membership	-	58.12
d90eeaedd6968342d56b90aed42e32615a922fcf	2024-05-22	Membership	-	29.06
38f6c71631dae37a2abcaa3c3098c1678cd3fae1	2024-05-21	Membership	-	126.32
be09ff6b051e2b1945ea35ac0bb2c608644e2a06	2024-05-20	Unknown Expense	PW COMMERCIAL CO. 300000001355024820 P44877 2141029 309572     10 20MAY24 21:50	231.43
8364aa276ffbdd101f3f9da3ada2e6fd1bf52418	2024-05-20	Membership	-	53.19
3c7c09d4cb18a7d5f962f12237c00aec64d022dd	2024-05-20	Donation	-	10.22
35c5b9ac8e2991b0087c2b789a2a999e3ecbb554	2024-05-16	Membership	-	62.79
6586639da37228dd14c8a4b3c5c5ef9a7684f130	2024-05-15	Expense	ELECTRICITY	159.18
088399f60900cb66ab3ce55f6024e12c5b6837c0	2024-05-15	Membership	-	14.53
4ba3596ea1ce471d3918f16ac26945dd513be239	2024-05-15	Expense	RENT	994.98
eb20895a0eca81b178d7265dbe418a5755525656	2024-05-15	Expense	VIRGIN_MEDIA	39.60
d858bd234d351d09949184a91fcb11bf35bb79e5	2024-05-14	Membership	-	120.91
0a049e1bca605f5270d993203814507eec2b7f79	2024-05-13	Membership	-	53.19
718f5faffdc31c05b053bb437a7ad4ea52f9855f	2024-05-10	Membership	-	14.53
38a242515df44153b60377f6ff1116648db5619c	2024-05-09	Membership	-	111.79
18944f302be6d237434ef80fa3b1fe44c77616fc	2024-05-08	Membership	-	275.55
24dfdc7cb572863c1df78e197f37c4c88dcf1b6c	2024-05-07	Membership	-	24.13
875549cacf48ffa5818e4a6fc608fd70fe014874	2024-05-07	Donation	-	19.94
6df2587d87694b0ae9f277a7eea3c4c3456344e6	2024-05-03	Membership	-	63.05
b168c921ff6085fbe44b32bea09e79aaab3611c8	2024-05-02	Membership	-	9.60
38428e8bdc155856150e4b17bb133de597875780	2024-05-01	Membership	-	52.93
3bb291c1643071ee177227d4c7ae5ca27fa59bf2	2024-04-30	Membership	-	53.19
4b1a508135f3175c920ec7adaf160a63062ae056	2024-04-29	Membership	-	24.13
0ae7c0e3899a68d3a329a4425817bab496ee3a44	2024-04-29	Membership	-	20.00
bc9f090db8f53193deb1674f481119bd5464872a	2024-04-29	Donation	-	1.38
347b7f26f033bf3119fb7d651566559b2bd8ad69	2024-04-26	Membership	-	24.13
e6c4fa113692e30ca15ae2fd822e03f7eb08791e	2024-04-25	Membership	-	19.20
a73e558a43da41d63c6a7eade8311bb5cb168f4c	2024-04-24	Membership	-	24.13
f652ac4a85711a53864d6c394942770ce09c3178	2024-04-23	Membership	-	208.83
8babd9076746895a7d61dd7c739be4809eb06bb5	2024-04-22	Membership	-	24.13
afac256b7b27c0599180c43f50c17a195a404b1e	2024-04-19	Membership	-	9.60
9c1ed27373df48cc98e49a49977a59ced0764557	2024-04-18	Membership	-	53.19
cbb6de621147082091462474ca5e2b6555fa4d5a	2024-04-18	Donation	-	6.58
be3cacdeb0c9e6918e27f04f4f8bff83121993b6	2024-04-17	Donation	-	4.13
4989a61e477bc0df3080ba14eb19fb90e5b018fa	2024-04-16	Membership	-	125.58
529ecee7eae18e004e6c87fdc84935e79748be63	2024-04-15	Membership	-	43.59
5c4483bb4ce5ed58f7d12f23280527acf7c55563	2024-04-15	Expense	VIRGIN_MEDIA	39.60
8affa43894f5483f529cf9ba81e889bcbd157421	2024-04-15	Donation	-	107.20
f4ea6858b0ac4a8650ade5684cafbbd8d462c4b1	2024-04-15	Unknown Expense	MR JOHN W LAWRENCE 300000001332834791 FIRST AID KIT 556138     10 13APR24 20:50	95.34
a7961927f828b30df28267ca5f1bac51637565f4	2024-04-12	Membership	-	9.60
ec0e6c4e0b541fa03ece93c870299b331fb66358	2024-04-12	Donation	-	3.44
ac4616e51600d5022df98ef6206455d0ebfe9d7b	2024-04-11	Membership	-	53.19
4494ea7ec9371e2cc4941c63ef29d9e0fef3584c	2024-04-10	Membership	-	14.53
b6dd2487bbf719b24af664771e80588f2a43f789	2024-04-09	Membership	-	194.04
9b7994e88cb456bdaad55175467e903aeef87a27	2024-04-08	Membership	-	96.52
389b0ea3aa8ea68570726cc0360a6095db555a4b	2024-04-08	Donation	-	32.18
d1c7e48a56f7197135aee8d2fbff2c72cb489d6a	2024-04-08	Expense	RENT	994.98
5089dba8f3fdc2abbe07847b0aeb8c00e92ecefa	2024-04-05	Membership	-	96.78
1432fb4aa22b9ecd18675b2c1843631496f45134	2024-04-04	Membership	-	9.60
a43e2292d843207f043cb4506a81eeb156280666	2024-04-04	Donation	-	18.66
4ed11a79de4ade667cdedaa640a9da3cdcd55292	2024-04-03	Membership	-	174.10
990d47935f478ea172cbdc0b90490a0b35eafdc1	2024-04-03	Donation	-	1.38
dfb477e123a2926ef114e86f6c6245e5d9409945	2024-04-02	Expense	ELECTRICITY	210.43
780045c31714e5e7aa3943aa891349ead41c628d	2024-03-28	Unknown Income	J ROBERTS BURGELECTRIC OCT23 500000001319895098 309575     10 28MAR24 21:38	285.77
b0d1670b6c7b883beeff7ff9904f80f78687ab19	2024-03-28	Unknown Income	J ROBERTS TUCKSHOP CASH 500000001319672598 309575     10 28MAR24 17:01	224.20
878c61ac8542168311414633227167524d592d69	2024-03-28	Unknown Income	J ROBERTS LASER/3D DONATIONS 200000001315561217 309575     10 28MAR24 17:00	195.00
ab7a0fba192869147c2289ded8445c14eec8471e	2024-03-28	Membership	-	19.20
81ae51db42bab8fe6af6d81b75796568e29c716f	2024-03-28	Unknown Expense	MR JOHN W LAWRENCE 600000001318970283 BOOKERS TUCK SHOP 556138     10 28MAR24 11:29	252.30
b8d4064623a8f8988cb67fe9c12ba4561e0ee705	2024-03-27	Membership	-	38.66
e3d16e577b332cc740bf309ed0c9a28536298d6d	2024-03-27	Membership	-	20.00
93d8d87ba66c24a01e63ad32dd32ddfb21cf3b9a	2024-03-26	Membership	-	67.46
7498a8f659c9827d6280978c6677f76246480c7b	2024-03-25	Membership	-	67.72
54f50798fcc0aaf06c48b4b3c7c1a3d65ca85a46	2024-03-22	Membership	-	29.06
af6a58f8ab1bbe27b8276093b30d278935b0065a	2024-03-21	Membership	-	112.05
b84fbd4f3c04f38eeedb62fb5e0073b4275afe9a	2024-03-20	Membership	-	38.66
29de46bbb79db644f0da97101ffcfcbb62ca81d6	2024-03-19	Unknown Expense	MR JOHN W LAWRENCE 500000001313945813 HENRY HOOVER 556138     10 19MAR24 19:35	160.00
4b8272c758a64e8ff0d0529edf972e818c0c402e	2024-03-19	Membership	-	62.79
fb2cbd50190c25f7c5d8ed65d7d6fe22d5d4bf8b	2024-03-18	Membership	-	42.86
22c34f6136fdb319d445c1c9a7f35a6e9d1ad22e	2024-03-18	Donation	-	9.63
c742252d77128ff054ebaa3a14c337a6d5630835	2024-03-15	Membership	-	33.99
2cfd8159da1a23772e3421b11900f6ffecf827b2	2024-03-15	Expense	VIRGIN_MEDIA	39.60
5c02a6990433e058c8059d0f7273c076769b2f3a	2024-03-14	Membership	-	67.72
9515c22619612faa1008c8a3f6e165d1e24e8b2e	2024-03-13	Membership	-	43.59
25bfd66369619ef5b3393e100df0489391f9c779	2024-03-12	Membership	-	62.79
c7f147e51b1381912d154b6ee7f8c8dba3af498e	2024-03-11	Membership	-	96.79
67a5cefac2067efe832e83549f214781eae0f474	2024-03-08	Membership	-	33.99
dc8ce811636a8d6b85727ecd6ff9aa560fe23b8e	2024-03-07	Membership	-	48.26
1d072c2d17ef90bc669df4fcc50765651213f397	2024-03-06	Expense	RENT	994.98
66f7f2782d88c47936c8167a516852f67b23c6d1	2024-03-06	Membership	-	81.99
394677dacbbf281d99da0924570f658a725e5c81	2024-03-05	Membership	-	169.43
8f624577015ae984f3c61482c20941208b93d85b	2024-03-04	Membership	-	9.60
86259b42848ef8df96c6a6427378f931b1a8a4bd	2024-03-04	Donation	-	9.63
a71beacb0b4490427cb17c73257cdcfa2ddc15af	2024-03-01	Membership	-	101.45
22b7ad588b39c24352970e7d3e386001d3317389	2024-02-28	Membership	-	19.20
e9e0be7738324ff27c07262526d783d69a4f0db9	2024-02-27	Expense	ELECTRICITY	56.00
db8634bdeb88bc256e0fc5bb5e36a1747dd0bcef	2024-02-27	Membership	-	81.99
c549b9e5ee9ccdccd6ad706884fe5f7306778119	2024-02-27	Membership	-	20.00
18add65bf8e114ce6d01baf52d30ce1a66437971	2024-02-26	Membership	-	24.13
f537740101483ca9b95e75360fa7e17bd092d421	2024-02-23	Membership	-	67.72
6020b8fee7841dd4fa7cd7614638dfec29f8f663	2024-02-22	Membership	-	29.06
f323383d7e15d1b7530c8ab36d82b59b4a42041a	2024-02-21	Membership	-	112.05
0adfcd12b457fae8126795e62c3542e81d768bd1	2024-02-20	Membership	-	101.45
da9ebe5f56accc658c3c6a41ecdd29e35889a902	2024-02-19	Membership	-	9.60
ddbe8dbee895fbbe64ec8d96edff342550390afe	2024-02-19	Expense	RENT	994.98
f525bb5ac5a05978a676db9f605a3ef80dcb59ff	2024-02-16	Membership	-	43.33
942b9a46794b0464585eee8772b43cb4950c03cc	2024-02-15	Membership	-	33.99
683a4904006abe308017a318212426c75a94fb6c	2024-02-15	Expense	VIRGIN_MEDIA	39.60
37f7f69b6c6fc616f97573b0ddf18c47f1ca85f9	2024-02-14	Membership	-	67.72
f3e51f2f78649a7161f5fee4b9e18c8214dfa5a5	2024-02-13	Membership	-	106.38
593f30614bdb35df549e0ae54e489e67b59fd0d7	2024-02-13	Donation	-	4.13
e86f27bcd73edd9b4c762f2b6fc4e3e029430338	2024-02-12	Donation	-	20.63
04de779f8fd8d26bbf050d9abc02d7efc1a0fc95	2024-02-09	Membership	-	111.79
3b39dc2393b59f8602c3dd5e7b36c4dd37459e68	2024-02-08	Membership	-	33.99
f87d74b8c08d80fb51a4dc025a5423b991cfe747	2024-02-07	Membership	-	48.26
aae9b3c3382ca708a869ce7eddae102b3bfb1681	2024-02-07	Donation	-	6.88
773d88bb9121f3926ef9d34d328bc1e0ff8898f3	2024-02-06	Membership	-	173.84
68d3226838d76392e30854192cac41f460124963	2024-02-05	Membership	-	12.65
acf5ea52f43a9faf20aca3b47ea613e13da85079	2024-02-05	Donation	-	19.26
5f5b425e39d0daabe30dd7e5cd5d6b34c8be86d3	2024-02-01	Membership	-	24.13
647a179cc1f67f737562de6f0dcec94f8d1fcca8	2024-01-31	Membership	-	43.33
a554a2275a924726a82a280070cc373d46b64d2a	2024-01-30	Membership	-	53.19
696b3ca9d09762a12ff657983f7edabd81281df6	2024-01-29	Membership	-	24.13
0f525a4d057c2f219754f39adc1de3742d7b7834	2024-01-29	Membership	-	20.00
d3b67bccb6de49c8ac4211ec7ad8ef8176cab644	2024-01-29	Donation	-	9.63
23b6be405bc74de8f6e064af3504379e15f016c8	2024-01-26	Membership	-	38.66
ddc5dbd26e6282136af88b4de329fee5ae1e9fc5	2024-01-25	Membership	-	19.20
d410803c1cee16ec073ed55bb65780db93ae69cd	2024-01-24	Membership	-	24.13
1981ac8d5e73d0b1d3f5bff4b18a791505c60296	2024-01-23	Expense	ELECTRICITY	207.60
4304e2f8b452c7711736e875a3dc5e7bf71580da	2024-01-23	Membership	-	223.36
c7d6a7ec163a167ee275f3bf4c106a97afbc789a	2024-01-23	Donation	-	32.42
5b8235ee86d5d285459d8e9496fd8f302cd74feb	2024-01-22	Membership	-	38.66
3f0a4c6a3ec8e122350b0e79da7a08cf190c1172	2024-01-22	Donation	-	38.91
71a04ac45041aaa3b68c63c89d671c764986f345	2024-01-19	Membership	-	9.60
9bed2a909162e63498c0497798153519b0fe176d	2024-01-18	Membership	-	53.19
c164abdc5995c7638776423eab117e6c17a0e2c7	2024-01-16	Expense	RENT	994.98
edab377714b4bd941b9383b7bb915d6593582762	2024-01-16	Membership	-	115.98
1a0a8555436526bf8bb883bc2692bbdbebe3642e	2024-01-15	Membership	-	43.59
5897ab062c8d526805900fe21e12b18f49fc8566	2024-01-15	Expense	VIRGIN_MEDIA	39.60
522f6682b9996dd4ff71c04cbf3aaf7eaa5218a4	2024-01-12	Membership	-	9.60
f66668e3034b2759ce15bfbed1fcaedbc5afe1f4	2024-01-11	Membership	-	53.19
7b3ff6362566b7b443e68513b90d73e6e98cc06b	2024-01-09	Membership	-	150.45
df35e8b5e6485b72c4ecbe789990050b69c4b046	2024-01-08	Membership	-	81.99
0754d5b5ff889c14fcdca9e0edfea4b4c854de85	2024-01-05	Membership	-	82.25
06bc21692562aa951b41604103cbd369064c6568	2024-01-04	Membership	-	9.60
5db469bf984ec502b9e7cf904ff6a686bb6b9f9c	2024-01-03	Membership	-	149.71
c5f6ec8015e35378f17e1f8b8258ae5f693d97a4	2024-01-02	Membership	-	33.99
e43b118c1db6e83eec23194e2335254156411a60	2024-01-02	Unknown Expense	PW COMMERCIAL CO. 200000001263680762 P31104 2141029 309572     10 01JAN24 22:12	14.59
e71166973826a6f07323810a710f81d9b8e0e524	2023-12-28	Membership	-	125.32
7b36c0194b71a3597b82dd99e064d8974349cccf	2023-12-27	Membership	-	67.72
e7b304d2cdf22bfc0b04352167d568524b878faa	2023-12-27	Membership	-	20.00
3da2cfd482c6ec2e20eeb0a3f1fd62a26b62a690	2023-12-27	Expense	ELECTRICITY	390.94
6faf3544dff4eafa8666e485952407ecf49140dc	2023-12-22	Membership	-	43.59
1f55222f43be8875a647c43d0b76bd634c5f3d7e	2023-12-21	Membership	-	112.05
6fdc9f9960e9f202ef17e08e909d142dbea9fbc8	2023-12-20	Membership	-	9.60
9675f3e00099ffc95871e166c299be6a4ffe7c6b	2023-12-19	Membership	-	48.26
83333f6b8fd41db426c5dccd336449f52dd241c6	2023-12-18	Membership	-	28.80
3d881ea60542a6c0888ddc45652fa0689c0752e2	2023-12-18	Unknown Expense	MR JOHN W LAWRENCE 500000001258708189 TUCKSHOP 556138     10 16DEC23 14:24	202.64
2524b380a33eda677761c8220e42626fd4cb50dc	2023-12-15	Membership	-	33.99
0ec38bb8255c6c0989a86044e3c5ee3535429967	2023-12-15	Expense	VIRGIN_MEDIA	39.60
0e5806712d5d4d1f3227583300b8cb57997525a5	2023-12-14	Membership	-	53.19
d4c7040574b164d02614c5972b92180dc6b4b3af	2023-12-13	Membership	-	43.59
867acd55c5cb08c6a60eac7a48028c1b6e6a7e74	2023-12-12	Membership	-	19.20
922257da98e038123e219c2f449d6df1fbd614f3	2023-12-11	Membership	-	82.73
eb8da4262466371f21c3602df98639c9ee1909df	2023-12-08	Membership	-	19.46
bf649b08b1994ddc9cc42fea7288369a05fae444	2023-12-07	Membership	-	48.26
e5e41f853468080e788ddeb1c632b5e71bec9a85	2023-12-06	Membership	-	81.99
0c57caadf44e9299f9f3c72540c308b171d76e91	2023-12-05	Membership	-	154.90
4e5e2309a6430d457cccfbad0466087144703544	2023-12-04	Membership	-	9.60
22877cdbcded9d9c9f2f98d26eb9f668b736b8fb	2023-12-04	Expense	RENT	994.98
fa591374a09db173a02fbef9ed0681a057544ba1	2023-12-01	Membership	-	77.06
c904fe78b4cb45697521d44a4d99071ec08e36f3	2023-11-30	Membership	-	33.99
a8869277538a2d36290ebc4cddc282d0ee57fb2f	2023-11-28	Membership	-	81.99
dd2b54abc9f7c925a6c53762c7bd2d7ee1b98672	2023-11-27	Membership	-	19.20
7ccc63b471f79587d8bb2f369203eec094bbf8ca	2023-11-27	Membership	-	20.00
363a0381a4003179c039023f2093caee4263e393	2023-11-24	Income	Electricity:Electricity	189.53
35bbf469bb290a8daa9ddec3fe077942dc0bde7f	2023-11-24	Income	Electricity:Electricity	668.88
94b9ddcc30ab9c315a553f323d416f10a5c72ee6	2023-11-24	Membership	-	24.13
dc64947e8cfbc3af1b31f6871124e3a5b3e3cc4c	2023-11-23	Membership	-	33.73
2e7551b0461c0bffa8ef2d7407472f0a7c5d5e43	2023-11-22	Membership	-	43.59
71ff3a477ab9e004d367d9505dd938a350d06fd6	2023-11-21	Membership	-	111.79
7240b3105e0da7282c52bc4f0c09171632932f85	2023-11-20	Membership	-	38.66
320c0a9737af94ea5a17599bc8e1bf4d0e869ef1	2023-11-16	Membership	-	28.80
5a5d1830477458482fe2d23d3f0e3282a475283a	2023-11-15	Unknown Expense	FIRSTENG LTD 300000001242697393 HOT WATER TAP 600902     10 15NOV23 17:14	55.60
06832c20a30431d0363a03d2c58ded6a3e4c622f	2023-11-15	Unknown Expense	FIRSTENG LTD 400000001244192550 3D FILLAMENT 600902     10 15NOV23 17:13	50.37
1cf58518c4b4ed3f7ac1f3396f014185f73e807f	2023-11-15	Membership	-	33.99
bfe1806e64c61ba1d4bf415c58c1400968ad8cc5	2023-11-15	Expense	VIRGIN_MEDIA	10.40
b4bd5e05833a30de661a2e526e1189a49a9841de	2023-11-14	Membership	-	106.38
17b1ebadc6e32cfd783f7ddfab4fa275843bfb11	2023-11-13	Unknown Expense	FIRSTENG LTD 500000001238395701 REPROGRAPHICS 600902     10 13NOV23 22:31	13.00
2f8c13d9e3d2f24a12a747304770fe180b69c42b	2023-11-13	Membership	-	9.60
df2e71cb97da9c6ee49c74074356054d5bc1725e	2023-11-10	Membership	-	14.53
92b37e7511409f4b83dfed195a342a7856f9cb3c	2023-11-09	Expense	RENT	994.98
30ec9ec0ff6c6b60cfdcc9395422647e68a63e29	2023-11-09	Unknown Expense	PW COMMERCIAL CO. 400000001240981887 P28350 2141029 309572     10 09NOV23 21:41	12.41
ca2be606f01e066f0ebd6e5fe4644ae3c95cb23a	2023-11-09	Membership	-	82.73
5f8dea756a4a6fb63800b2e26f6026026ffb1cf1	2023-11-08	Membership	-	19.46
8203bd5ba9cdd70b3b1be5c57af00e8b20c0d49a	2023-11-07	Membership	-	212.50
99adf40e6f5e09afefe40283e9d73b3e3ea215f7	2023-11-06	Membership	-	9.60
92f459b689e749ef2cce25969b1634af5bde4371	2023-11-03	Membership	-	63.05
e27075a34239ee8e7af63e87156f96392be166f6	2023-11-02	Membership	-	19.20
0d671982dbbb7ef7cd2e1a46901de152bf547139	2023-11-01	Membership	-	24.13
f5dd5c063670e348350b493b0d91552ebcc1aea9	2023-10-31	Unknown Expense	PW COMMERCIAL CO. 100000001226989734 C26628 2141029 309572     10 31OCT23 21:05	12.41
1c20605a4ec12136db9c15bc217d79ac3a97fc82	2023-10-31	Membership	-	62.53
578bfd525e7a9c559d2ea9da941e33c84c39c996	2023-10-30	Membership	-	19.20
af9a6654c5232a45ea7484f7edf1b971e0c47d68	2023-10-30	Donation	-	9.73
33a4add21a4b5e393352e33736aeff4a66733078	2023-10-27	Expense	ELECTRICITY	144.15
76933fbc68c97da79ae1ead591f4b946a372cc08	2023-10-27	Membership	-	24.13
c92a56ea447d29bfdec64a668f9f99de7f3a82ca	2023-10-27	Membership	-	20.00
f36a999360ccc25b264c0c014e0e53eea8b321b2	2023-10-26	Membership	-	53.19
3db0350b154afb3b52bb3cc6bb77087459adeeba	2023-10-25	Membership	-	19.20
d2c340d973524a59e163738ed707a2ef18f5014a	2023-10-24	Unknown Income	J ROBERTS 3D PRINT BOX 300000001229116840 309575     10 24OCT23 22:13	50.00
1f758caef355f6a222b1c4849ca95c820e05122a	2023-10-24	Unknown Income	J ROBERTS TUCK SHOP 600000001225550423 309575     10 24OCT23 22:12	180.00
cf89e3df7097a64c031f2fd8147f719b58bfa027	2023-10-24	Unknown Income	J ROBERTS LASER DONATION BOX 600000001225550281 309575     10 24OCT23 22:11	195.00
2ff7fbcbb2a749f79e2efbf344d1bb19a3c8aa29	2023-10-24	Membership	-	111.05
679301290b4cd450e0959db1c9f0a01df0aa0c4f	2023-10-23	Membership	-	92.59
e6fa79c01a954c48245a73b52041223991725879	2023-10-20	Membership	-	9.60
b48607ecb409f0d01b5e376c961aed84b6eb4bb4	2023-10-19	Unknown Expense	ROBERT BUCHAN TERR 300000001226368172 BOOKER INVOICE 040075     10 19OCT23 21:06	68.51
b643876e6fafafcd7f0b96f3cbea988da4136d86	2023-10-19	Membership	-	9.13
ca1b832007d397993769ff8f6ab8f0b01d4be914	2023-10-18	Unknown Income	J ROBERTS BAR AND WOK PAYBAK 200000001218623897 309575     10 18OCT23 21:42	31.00
21e630273e85cee57c9a5cfcab875d25aa5730b2	2023-10-18	Membership	-	38.66
cb6fcd475233b9fac122586b7cf042a01e5aee4d	2023-10-17	Membership	-	62.79
222fa6a85a532f6b0b238574aedbc5321d3beead	2023-10-16	Membership	-	53.19
8ed799b62ebb232aaa5506ad4f8e6f2338d4f59e	2023-10-16	Donation	-	60.91
5c72e6c17b4267153e1e0a47640dfe3f3473b728	2023-10-16	Unknown Expense	WWW.BARANDWOK.COM CD 2619    14OCT23	31.00
227f1dc89be0c65cf2da68a88adb8e9c82059320	2023-10-13	Membership	-	43.59
e3b6c9764e0e5b8c565eac03833b69385f72384a	2023-10-12	Membership	-	9.60
9c4c6588cc010e78380ffe53260af6c57b97b270	2023-10-11	Unknown Expense	PW COMMERCIAL CO. 100000001215370640 2264486 2141029 309572     10 11OCT23 23:01	15.60
9136bb4de116da2c912b409e236574c836223c18	2023-10-11	Membership	-	9.13
f4658baacf2982910d31c0967601b4069bbe2ce9	2023-10-10	Membership	-	116.72
2633a595c0183aaca6098483381ea3574c81f01b	2023-10-09	Unknown Expense	PW COMMERCIAL CO. 400000001222521983 P24955  2141029 309572     10 09OCT23 22:19	16.80
7e1e616d241cd0ee7c396faa9cb6677ee48fc634	2023-10-09	Membership	-	48.26
82dddad9a94f373edd0be039d29125c74ff492b4	2023-10-09	Donation	-	29.28
b6429d1cbd616b430b71a0005510eef1ea09a041	2023-10-09	Expense	RENT	994.98
697f303deec5734fe8db1f4cffba1c1eeb123a45	2023-10-06	Membership	-	81.99
82d44d098f71a08338edfa06b07edcee9e5788e1	2023-10-05	Expense	BANK_CHARGES	0.22
b779713426188ef332124d331ea2fea7d1964aa9	2023-10-05	Unknown Expense	BITWARDEN US           10.00 VISAXR     1.20482 CD 2619	8.30
bbc11033a1cc65636bd6e5136e78ae98ac0c1b88	2023-10-05	Membership	-	82.25
32e71975a7e8c61c1dbda63e08c21c20f3b8a887	2023-10-04	Membership	-	9.60
7ab21912c73b7261083212a390396f42254d3b22	2023-10-03	Membership	-	129.78
7a4585ecfcfe97d252cd5f4ddaa49831c2b53445	2023-10-02	Membership	-	9.60
9c23037cf1f7a535119d986d088f2229162862f7	2023-09-28	Expense	ELECTRICITY	215.00
552d325420f318768f60711c4d10121c95320afe	2023-09-28	Membership	-	33.86
b3230f9a6ca38e25e0dca141c1804bb07b3c5ddc	2023-09-27	Membership	-	24.22
181ae817f6cebe095aef2929e5ae4bfc352fcb77	2023-09-27	Membership	-	20.00
b11cf3f760ed700d0c07a375a1995c072ff41e30	2023-09-26	Membership	-	77.36
e1d1626fddaafd66d18a2397036320e2ac089f74	2023-09-25	Membership	-	33.86
43941f9f00aeb4339f866c1cf8c464f0d91aa8b0	2023-09-25	Donation	-	6.88
964c9a92dee23cd6c454d4f528b99d3ab6fb45a5	2023-09-22	Membership	-	43.74
02c85acd3aab605a6bdedab819385e782d1109f8	2023-09-22	Membership	-	160.00
848860931eb0d0c9381c846d697b72d830b4688a	2023-09-21	Membership	-	92.90
d176d9d93184ce9ee751a712dbd52463b64eb065	2023-09-20	Membership	-	9.64
79e92dc3bbabb0d65d64565fae0fa1ef5e1a61c3	2023-09-19	Membership	-	48.44
3965b1234d4da9a30c2bffb83aa14f39c88d246d	2023-09-18	Membership	-	28.92
e10ddd25fa3ba10008508cad09d0cdf0c5458799	2023-09-15	Membership	-	34.10
132353ccb9640ca65d789dfb4f265529aacd9135	2023-09-15	Expense	VIRGIN_MEDIA	39.60
c60a1426d135e48593493881307f2801c95f23e0	2023-09-14	Membership	-	53.38
4cf9e5ad3a6f6f88609f099d8e69e2147624740f	2023-09-13	Membership	-	43.74
7dad3028428690310432483f2dc733fa60df7b9a	2023-09-12	Membership	-	33.86
cd422c14cef5efd862fbdf461086689cc484c483	2023-09-11	Membership	-	83.02
ee4c8f714db000d56a3f890122ffa8ef847a924a	2023-09-08	Expense	RENT	994.98
0f8241b8d932a6366f23950f7bd6c409457d6c69	2023-09-08	Membership	-	19.52
d2bdde0323362429bd92ca6912248c5b1f1c8d6d	2023-09-07	Membership	-	48.44
c5ed37d2664992dd5f0e97c72662a4b4603a6871	2023-09-06	Membership	-	82.30
38ef8b95d9f88b54fc3ec1f54b4244aa2bbb0103	2023-09-05	Membership	-	126.28
d4935c6055700325f830401b360895ccf1f7c1bf	2023-09-04	Membership	-	19.28
ba81401b04ab974aa59ed6573382931b01af931d	2023-09-04	Donation	-	3.24
b18cb6a918aae7080432216756a5ffb58ec2b4d7	2023-09-01	Expense	ELECTRICITY	45.90
5cebcf6b2eb2f2c525ce94930f03cabded4369f7	2023-09-01	Membership	-	24.22
88455a2a1ac7050f1d978d564fcbedd5efe6533a	2023-08-31	Membership	-	53.14
15a1e20b5ec675d5c91d8bb6df58cf1582067246	2023-08-30	Membership	-	67.72
6c5304a7fa9f657ea73a4bd9cd2eaab5b8f6c913	2023-08-29	Membership	-	9.64
c90d45859bb03e943419a6cffab2ee2dd012cb0d	2023-08-29	Donation	-	19.26
ae1f894abf06dca2041f3cf0cfde3f7785fcd7a4	2023-08-25	Membership	-	19.28
423b3bb231fe42a1c3432e8a24f106a0d7aba190	2023-08-24	Membership	-	33.86
afca274dd452e2c126e84feabcc7ead73c763618	2023-08-23	Membership	-	19.28
d3dfe56ba2901629af67d886d5cc76cf5239bfcb	2023-08-22	Membership	-	146.28
f9dfa8e0af78dcd9647a48fee63e92b12f212a39	2023-08-21	Membership	-	9.64
5a3662ad2ea08d49655c988adcbec9c63575ccfc	2023-08-18	Membership	-	38.80
ab953a4e58da2d785995d7cfd166c0a80849d1f6	2023-08-16	Membership	-	28.92
4dbcb74418ccf274cd336a0188b6f023debf4c12	2023-08-15	Membership	-	121.34
75e8241ca0e0efff049fef09cd7594bef7bf8461	2023-08-15	Expense	VIRGIN_MEDIA	39.60
f6b3c15fd9bd60776b5acf2bbdff6a58f41ce19e	2023-08-14	Membership	-	9.64
fe4206bc2655588f39eaeffdc7d4b7b239475bee	2023-08-11	Membership	-	9.64
e3ca8f9c4631b79358d8225fc3d8e0120e055105	2023-08-10	Membership	-	14.58
1a997484888f9eba5b56301f23f92bca97655b64	2023-08-09	Expense	RENT	994.98
8f545dce0145b090f4f0b236a23925185bdd7016	2023-08-09	Membership	-	83.02
63e74be3641a5e745a1a65f8966095c49b0ebd47	2023-08-08	Membership	-	135.68
c528d0ccfba7435c3a00029e83bd4da68e6b536f	2023-08-07	Membership	-	82.54
68c2bbaa3ff35a0331716c33a3ac35f898641180	2023-08-07	Donation	-	16.95
2f366e5d48247654cebb402d2909a9f13186e8f4	2023-08-04	Membership	-	9.64
3d95cd276c138d6f8349f6315528e471e9c8152e	2023-08-03	Membership	-	34.10
e4773d7c8293b2041c84f7c81005dde99c095283	2023-08-02	Membership	-	19.28
9351f85f3c822d502676f082afe3e66e1c3d4174	2023-08-01	Membership	-	87.00
8fc43c88905448bca0684b89e1730867ad1cae9b	2023-07-31	Donation	-	5.89
21a630fbfde3cfd7b88bf2b80144e688aaa15d5a	2023-07-28	Expense	INSURANCE	304.60
a4b166f1e3bfd147dd3f99d72f3866a161dd94ce	2023-07-28	Membership	-	33.86
5c7e10c00d01a7505b370fb4978da1400cd2baa7	2023-07-27	Membership	-	24.22
0117e019f02aaa1bc21d1806818425c3a81e878a	2023-07-26	Membership	-	9.64
de5c8e308a12513ca2aed7ae9a39258486cd28d5	2023-07-25	Membership	-	57.84
ec0af73631ce64df83af90021b724c30d4c4de66	2023-07-24	Membership	-	43.74
abd466805c562e6676f30abc6460d34571ddbd50	2023-07-24	Donation	-	49.12
80765195a5226ed93f51148b206d1617afe804ad	2023-07-21	Expense	ELECTRICITY	149.50
5db4bf9a92f82e8f8a593d586de1007dc54e3b97	2023-07-21	Membership	-	92.90
