f4c5903ed25e4b86946cea203719da771b295e88	2017-03-16	Donation	79	10.00
ae9d4a586b18cebb7ac59c1bdab97888e1b5f6fb	2017-03-15	Donation	52	10.00
e2580c842dd088044c827788e8eb443fae4ae0bc	2017-03-13	Donation	81	10.00
ef5bc75157298c55d31f76b2bc2a00af6e1016a5	2017-03-10	Donation	70	10.00
5a290a99b5ffbe4fcc950e62d61c2912f28a74f5	2017-03-07	Donation	79	10.00
3e904ef224dda5356d41710be30cbeef847c4bb8	2017-03-06	Income	Loyalty Reward	0.33
e9a10ea8b809be1615abcb503e30db6a3ec7a441	2017-03-06	Donation	62	10.00
60f2bd29b0d8d8f666ca1b13b4aea4e8771ad05f	2017-03-06	Donation	9	10.00
da726865ff457e2314d662c22f486b44b5406ae8	2017-03-06	Donation	73	10.00
f310569399e13de4a0faa5382b9b852f913d9d53	2017-03-06	Donation	74	10.00
24c2df34df666eea7553952f7b89fb106021321a	2017-03-06	Expense	BANK_CHARGES	6.50
77c3ea6d10a80518bd8952497626cb69797c0f6e	2017-03-03	Donation	19	10.00
a5162287849aabf3a82c489982dfadef9f8b0cc6	2017-03-02	Donation	50	10.00
8c1976c72804e0a6816f0636d9d986643d62a0b3	2017-03-02	Expense	ELECTRICITY	250.00
ad197f2d72f0ed8c1cf048684fb3df7253c6380e	2017-03-01	Donation	4	20.00
50007273cb17d6df23065d7742e0cf50e731c9b3	2017-03-01	Donation	66	10.00
1fced4336239b8eb7fce9b0c64bc4c7c2d421e5c	2017-03-01	Donation	67	10.00
a6f53a9593f9f5598ffeebcec0f56f24552fd150	2017-03-01	Donation	72	10.00
f20334869389e9ba9de26eb5b4c8cfba1dc80129	2017-03-01	Donation	0	60.00
14a14bfe5b53d277d90f92713ee2ded116336d76	2017-03-01	Donation	37	30.00
0f562e4b4818c92f1aa22991b2dbcb017b3172ff	2017-03-01	Donation	1	30.00
44c70250f6b3f22f5b735ceaedab700dde52c72e	2017-03-01	Donation	3	20.00
2b401ceb9b6d556b243caf0a7b0178a15cf28769	2017-03-01	Donation	51	20.00
e46733ec18da40bd37bc0e6aaa7e789f53534a3b	2017-03-01	Donation	2	20.00
db8269f141a895c590c28dad0c7a7d40bba5216b	2017-03-01	Donation	6	20.00
e5560852c13832ecbd512f52801de8d8d2ef1726	2017-03-01	Donation	43	10.00
1078e7fe4fe341c6131184ab8034f3aafadfd606	2017-03-01	Donation	68	10.00
427112d14d172f0bed99758072b0dc8e4ba39737	2017-03-01	Donation	48	10.00
c9c4e3a65d2531839b54101678bcf68f497d85e2	2017-03-01	Donation	13	10.00
bb86fff7580cdb63db0dcd26aed9a33a354d56b9	2017-03-01	Donation	65	10.00
d7006369ec64af1c1a03a4a40af7833ac2b06b54	2017-03-01	Donation	10	10.00
b8dbd55c91ad25a1c57879fd042d6d9e18605e4d	2017-03-01	Donation	59	10.00
bee227eda7a3ccdb2aafb696415216ddc528d8f8	2017-03-01	Donation	42	10.00
67f49f6ba4f6557035f819d1bd642947a23f2481	2017-03-01	Donation	14	10.00
eebb83bf042864e9f8c5bc73b09dc1f4b5463588	2017-03-01	Donation	58	10.00
b41fa29163d6e3bf9d2cac0f4a66712c67d1dd58	2017-03-01	Donation	60	10.00
458aa9986e9604d494aea7a24f549c2521fbb696	2017-03-01	Expense	RENT	475.00
203f621e70c12fd5570d7ef2ef792a6a18a46e37	2017-03-01	Expense	VIRGIN_MEDIA	48.00
6823df3dc6ed44005ebd290958e008e5e7912659	2017-02-27	Donation	83	10.00
df0a52af3ba295af413631117437b0b90dc878b7	2017-02-24	Donation	85	10.00
6b9637c067c8fc970a5e7a200180799252a2409a	2017-02-24	Donation	57	10.00
69c9b45dea738d90e9b0f23307d94c83319f3bcb	2017-02-21	Donation	54	10.00
fc20cd0dbb11c4e4483e34c901eda648b99c56a5	2017-02-20	Donation	82	10.00
3fa0309e9933e7ab3e00dff82c2904e8a67853af	2017-02-17	Donation	39	20.00
633e0162dfe24ba43d7ba08e76a3d4f71a27b933	2017-02-16	Donation	79	10.00
4d51a897fff907e4e7fa1abebfa25ade48085638	2017-02-15	Donation	52	10.00
d73428913819a03648750ecc2ea5935a0e4e4206	2017-02-13	Donation	81	10.00
3ddeb96473e3106e233e2565805e510708189c3a	2017-02-10	Donation	70	10.00
c244a6f670f1d534eaa086c949b1518ed9ebf9b6	2017-02-07	Donation	79	10.00
01ffa7954d06c3d35e0acc9d9c23a883ed789524	2017-02-06	Income	Loyalty Reward	0.33
979b0eec4b20b8b7574726c376ecf0152e51ac64	2017-02-06	Donation	62	10.00
749988e88f761da0d48b210068e000d861baae0c	2017-02-06	Donation	9	10.00
6e180cdb010460b5bb722159306bada76452d406	2017-02-06	Donation	73	10.00
539a50b821d5da5e9c64151194fff2bde9e4dcfd	2017-02-06	Donation	74	10.00
1c21ec9eeaa00ddcd51449504dc21493627fbdda	2017-02-06	Expense	BANK_CHARGES	6.50
3e358ffe128e541299a3d6f575a711013ddb2482	2017-02-03	Donation	19	10.00
ec081fca302395b72264a5349303159c8888bede	2017-02-02	Donation	50	10.00
280f0a670cf3f242b3c14f1146501a86494435cc	2017-02-01	Donation	3	20.00
d91ce83b93c9a7bd9bbf6035d214e5742e4c5c69	2017-02-01	Donation	37	30.00
390f44471697fd8985b8a6ccb9af033d2d985d9d	2017-02-01	Donation	0	60.00
0cfb3e7c46fb020911f9fc54ea16a62dedbb9e5f	2017-02-01	Donation	1	30.00
0b59f7aa91e5109cd42943325acf33c0e30578f3	2017-02-01	Donation	10	20.00
11291d3ab16cffecfe80aeb3b0478e56126e5525	2017-02-01	Donation	43	10.00
2d12b07d81fa7e6ed2fa55bc05090f21fed00981	2017-02-01	Donation	59	10.00
9fdcbc0b85d835d0d17f7d801fd13fb96ee6c79b	2017-02-01	Donation	68	20.00
6d6a80663ca784eaf4b1d99d91889d97753dd9b2	2017-02-01	Donation	51	20.00
03843c1f13560ba0d21689c99d9b39ef4daa8583	2017-02-01	Donation	2	20.00
fafb5ee6ebb86a20cdb1f31dacc4271f1cbcc8f3	2017-02-01	Donation	14	10.00
467545f2b130b955d8341a5c2efe74996fd2730d	2017-02-01	Donation	42	10.00
459a7cc9c83522b898a1037c93d458de6d2e91a1	2017-02-01	Donation	13	10.00
6ee865008cf861a81beea256d03ec92e24c9b3a3	2017-02-01	Donation	48	10.00
9d5aa1e35589a6ba62a70d96aea413b5ec1be04f	2017-02-01	Donation	65	10.00
2ca5153cb7116b2df15373975d521b3910857fa6	2017-02-01	Donation	58	10.00
4e5f746fa3c389644387e0c8883d680086f09286	2017-02-01	Donation	60	10.00
f9f4a9c9ed7ec4a807067a1d09f95516c8011508	2017-02-01	Donation	6	20.00
6785ae6a9265cddad1e63fa5e80400dff705e2e7	2017-02-01	Donation	4	20.00
3cdf8adca6a80885ecea34f7f20acbdf51cfe1ad	2017-02-01	Donation	67	10.00
6cbaf1d5cbe336f7042ea73690658ef762c64b36	2017-02-01	Donation	72	10.00
5de49eb2279feecec4f1c0534dc3b4b87e87c2f8	2017-02-01	Donation	66	10.00
e70ab76151277da146b744fa4f1f06336dde7a68	2017-02-01	Expense	RENT	475.00
be8303905720f1089cfaf8b7513cb9ff0a31d116	2017-02-01	Expense	VIRGIN_MEDIA	48.00
74450accac873ebf18eeb229aae1f1c991c5b2ed	2017-01-27	Donation	83	10.00
859e69711e565da7ca97f495fee5a01c4feab7cb	2017-01-24	Donation	57	10.00
b3a5860a9a8a3bf39c4e869cd75bd372900b4f4c	2017-01-23	Donation	54	10.00
d29b497d974f26a97b298d998932308039148e64	2017-01-20	Donation	82	10.00
d8281801f17ddf86d9d0b16e49f604e78a0547a2	2017-01-19	Donation	19	10.00
40a7b843aa96b8f84f9778e5bbefc5dca20580c3	2017-01-18	Unknown Income	203383 83959392       CASHBOX            FT 	80.00
8dc363b97cc57a410e2ea01b16a8b42b1ec645a7	2017-01-17	Donation	39	20.00
d35d124478cfe6ca923d3f94adbca29b202b7740	2017-01-17	Donation	54	20.00
2f0e6f8de63a174bab013166e165d26af8c5b395	2017-01-16	Donation	52	10.00
15f1b1a2f688170ec6ed855b5bb888e1bf86be57	2017-01-16	Donation	79	10.00
d75ab831cd28d6126b18d0f71c5de1d0cb12db89	2017-01-12	Donation	81	10.00
4428012c5ac61a11fbde8f74be24acd41ba2a1cf	2017-01-10	Donation	70	10.00
3c5d09d02c299e2b1df95327a5006de002322243	2017-01-09	Income	Loyalty Reward	0.33
9d7c7a1dc18f3430b3750f9f78abc5b8a98f9817	2017-01-09	Donation	79	10.00
2d62de12900954a5223b43e40eb69606d96ed9da	2017-01-09	Unknown Income	J Roberts             DONATION BOX       BGC	50.00
109d97f87b1dd9911560ba410f37bb6e473137f7	2017-01-09	Expense	BANK_CHARGES	6.50
a8013846cb9629e60e9b8f56e88cea73b691a6eb	2017-01-05	Donation	73	10.00
419a99b93df76220b5ef753e0a2f3c113a19f1dc	2017-01-05	Donation	9	10.00
df350d85bcda04e4277eb0512f9033f26e19e4cc	2017-01-05	Donation	74	10.00
71439a4268c0c658e3ddc521564acc1d1f7fc40f	2017-01-05	Donation	72	10.00
517eb190a7b122525202b5c4ca140dc7d5a555e6	2017-01-04	Donation	62	10.00
c629aeb70f7b7a8cb01c92e1ff1d14f9d2ac460a	2017-01-04	Unknown Expense	NEIL CAUCUTT          HACKSPACE          BBP	200.01
14fcd5a3cb552eeb356acfce0dea4348634da49b	2017-01-03	Donation	37	30.00
12ad1377bb5671275eedc23098201e891fcecb38	2017-01-03	Donation	1	30.00
e13543ee0f2f782cc2854d4edaa8e65d8980d7c8	2017-01-03	Donation	10	20.00
a1d78948e6a17026ed962bc5eb9ff902ccc5f913	2017-01-03	Donation	0	60.00
7c596ace6417b360188a32361949c05d0485877c	2017-01-03	Donation	3	20.00
19efee99504732b2c96e24432b337a14c1f0cee4	2017-01-03	Donation	59	10.00
275a6d12bb16b52acfe659d822b8fa90a290e6de	2017-01-03	Donation	51	20.00
de0394772749f3b582f7ce0ad839227b8db96233	2017-01-03	Donation	2	20.00
fcab72546ab68b4f673280a78fd6776417c19d20	2017-01-03	Donation	14	10.00
8d6c265581765651cbbc583f45f08b8fb9639474	2017-01-03	Donation	42	10.00
01e760d47e4ff81923595e2e0bff0b0cda06bf78	2017-01-03	Donation	6	20.00
e8cdf2adcf31388e9a4cf97a5062e02066dadfa4	2017-01-03	Donation	58	10.00
73a594bef7765a3818f7c15db3f8d3f669a6b170	2017-01-03	Donation	60	10.00
ce91c9bd1718c3d86d2ddc777b44aeee52aaa7cd	2017-01-03	Donation	50	10.00
b18dd430f4bc4a6fa74adf09da55e478303376a8	2017-01-03	Donation	68	20.00
1f3a73b06f2541860f1cc3553b0376d83955ed04	2017-01-03	Donation	13	10.00
fc51c4494b7a62678da6a1ec0a65cda0bb35dd71	2017-01-03	Donation	48	10.00
2f4c6d9b44a3f818d1e5dbc18a070639b8d9abd6	2017-01-03	Donation	65	10.00
b61707b60ef3bd5fe3e19e001ed25cd777952276	2017-01-03	Donation	43	10.00
f9c10356b8ae631eb9f4e83722a86bcc687115c1	2017-01-03	Donation	4	20.00
1bdd3fc8d17341ab9cf7630b35f3837ee59ab93b	2017-01-03	Donation	67	10.00
7e2ae6b71a5755cb3901ca5b2f1be69970032c28	2017-01-03	Donation	19	10.00
6e686ee8c795d9d04ef8d90c501ba74f4c721984	2017-01-03	Donation	66	10.00
e77a88af7229bf2f4a0349998f22c31b7538cda1	2017-01-03	Expense	RENT	475.00
1722b889e73bd9e94bef309ef1fa791ad2f711c4	2017-01-03	Expense	VIRGIN_MEDIA	48.00
7fdd6b92f4e9ceeb155b021083e97d291b633a1f	2016-12-28	Donation	57	10.00
21318d6b946e442900eb063d14ddc29671d99334	2016-12-21	Donation	54	10.00
fe806acb799f57f319923184c4683b5e420b074b	2016-12-19	Donation	39	20.00
81031ed9277879943b2d78e017391fe71dbc3e0c	2016-12-16	Donation	79	10.00
24ce71e60cc7b1b4213bf69c027ed99236a49c97	2016-12-16	Unknown Income	203383 83959392       FROM PETTY CASH    FT 	120.00
e8847f5415ecacdab2f3dc7198b0c34d33a6ffda	2016-12-15	Donation	52	10.00
12d463b22ce50db3a55d6bbe36192742d60db9e9	2016-12-12	Donation	70	10.00
d70102a385161e02dd5bb89ff0200add4f92f3f3	2016-12-05	Income	Loyalty Reward	0.33
02acd58fd860c57ad5cc2d43b9ec2afe34e50902	2016-12-05	Donation	9	10.00
21af6e58bb11b44b967f4e1c5cb8f0ad4cc18cde	2016-12-05	Donation	74	10.00
e4da3102b33199ef632eb6de85c115a8edd0d13d	2016-12-05	Donation	62	10.00
d682e72190b74f5eafea440c4e3071c35c959605	2016-12-05	Donation	19	10.00
910a93ba8702d8a424fdd149a11f0ff7079a6401	2016-12-05	Expense	BANK_CHARGES	6.50
6378d226740d216a281caecd3cae75673d1ff37d	2016-12-02	Donation	50	10.00
5e65400a70aa5957dccea3e9c44d82891f741b3f	2016-12-01	Donation	3	20.00
05db88d328de25f3c1d4796e669f37e278870780	2016-12-01	Donation	37	30.00
ea7f5cb364a5161039662cdfa019c89475625020	2016-12-01	Donation	1	30.00
3b944cc9a6bc3d4844dfd1d12396995eacf94080	2016-12-01	Donation	0	60.00
870a4d32c4ffa009a763e37ada1e1c23973b2a06	2016-12-01	Donation	10	20.00
881639d32a288c8237b28df9933bf7f5dd8bef70	2016-12-01	Donation	43	10.00
76c417f3048aba6d257dca672c0fe7a2b9344f21	2016-12-01	Donation	59	10.00
acb7bacae09d23fe4de08255285f7830391f4dbe	2016-12-01	Donation	51	20.00
4448dc427c03514a90831378bd2ca2d6e93eeff0	2016-12-01	Donation	2	20.00
0bed99d5e1d5e15434b00636767b6f3e3d2cc3f1	2016-12-01	Donation	42	10.00
d8af681d2423a503d787906149bcaf422c0711ca	2016-12-01	Donation	68	20.00
030e308c7298dcab025bdd1ac5345851366f229a	2016-12-01	Donation	58	10.00
d5465dcbbe227d55e3ab2439f2c3fd828b63f2d3	2016-12-01	Donation	60	10.00
84480fbf70769be2ae31df231209a7b2842fd4a6	2016-12-01	Donation	6	20.00
16cc285bc92ba50b26312237f9e80cf49d335806	2016-12-01	Donation	14	10.00
e8c514615fb8265d92f9d3e3ff3f9e56aff7e2f3	2016-12-01	Donation	13	10.00
054e20562cec3c8f538b1206ab3a742453e03748	2016-12-01	Donation	48	10.00
ea91324028d29e36510d557def7ad831ede6e9ac	2016-12-01	Donation	65	10.00
fb70518b6cf5956cdb18148abd6622bab5cb5896	2016-12-01	Donation	4	20.00
5529bd1c45af4d0dd5d67e0eac1d585942090e27	2016-12-01	Donation	67	10.00
860e47433cc74d2a8c4ce59466b31420bfc07db9	2016-12-01	Donation	66	10.00
3860bbee62b11d1fbc865e0e85bed4e300ddddac	2016-12-01	Expense	RENT	475.00
52c8afa68fe420b9fe032cf13daf6a6d7f4dfc7a	2016-12-01	Expense	VIRGIN_MEDIA	48.00
cce754b3412ccc3306a8f9c548bea01391715d47	2016-11-25	Donation	71	10.00
db21fb7de377fab2c6527fd8f38e71fa705804bc	2016-11-24	Donation	57	10.00
f0d06edd627b32bf8aa916904b07a434e348446e	2016-11-21	Donation	54	10.00
ab9f38a8a27491b8979389765609fdc98aa05b61	2016-11-18	Unknown Income	203383 83959392       PETTY CASH         FT 	50.00
1694a554cd4565823521ab44f172bd0a7c39bc30	2016-11-17	Donation	39	20.00
295b748226a9e33a8912a0f948a6c68cdfc004c5	2016-11-15	Donation	52	10.00
77430feda7d039bb4a6ca948f27bd8381a457a15	2016-11-10	Donation	70	10.00
86fd6096be25d0b03364e0199cdbfb3e011413d8	2016-11-07	Donation	9	10.00
cb8bceda9dbc214512934d6961b95a78894a8aa3	2016-11-04	Income	Loyalty Reward	0.33
a7a70dd790b5189fd8ac5b6fdb6f7a177fe2d710	2016-11-04	Donation	62	10.00
ac8a5261fe918e881117d25f3e1188d6f645ea28	2016-11-04	Expense	BANK_CHARGES	6.50
b9e5f38b5bd12b1172e37eb6f43f198cf51766f3	2016-11-03	Donation	19	10.00
a2583f330fd99d4bf9a45e8cd26f9d5fa17869f8	2016-11-02	Donation	50	10.00
1b75d45afdccd30ccf7cb0164b963da3b732335e	2016-11-01	Donation	37	30.00
8ce6281febc546c5a755cce9bf97c2851989fb84	2016-11-01	Donation	3	20.00
adccb9d4a4cc06dc262f3bc22ef6c5eae1680aca	2016-11-01	Donation	1	30.00
adc5537e133d7aa9fb3a2c93340800ec15d18cb3	2016-11-01	Donation	0	60.00
3fea03a0d902bc70c4e820f89fa92d0cb62d7f91	2016-11-01	Donation	10	20.00
8df90f10fc62d8e9789ae9c7c08340b5f72351ec	2016-11-01	Donation	59	10.00
7bc92bdaa46f9390eafa2f80e465f47ca55e520d	2016-11-01	Donation	48	10.00
faea35ba8177e08833ac674e32baf7455784b633	2016-11-01	Donation	58	10.00
4b3343343691ef86d38f0fd5873108d65f507887	2016-11-01	Donation	51	20.00
fb55593dad45795e56ac92afa54e7486e7b4df1b	2016-11-01	Donation	14	10.00
27a143ddb7233a2440dce01aeb227c39e6f653ac	2016-11-01	Donation	6	20.00
93873b3afe20dbd4cf863fb5f3c51395a61f59a4	2016-11-01	Donation	13	10.00
8eea8ee5d66339f13487e7bc1ca605ea908dfbe1	2016-11-01	Donation	68	20.00
82deffc1c6735182485d9259920808a0e06caa9e	2016-11-01	Donation	2	20.00
6d554ee238cb84c29b4b312cccf54afa9ad436d7	2016-11-01	Donation	42	10.00
9d1e662af0df8746137dfbd56386a374e07edf69	2016-11-01	Donation	60	10.00
5783bdeb1faf4701895e0b5668e60d7bf4e9b658	2016-11-01	Donation	43	10.00
886c5d9189a8aea300dc7d4531ad857c00a1f2fe	2016-11-01	Donation	65	10.00
4941edb9db9356793f96369b4a885414c0e45901	2016-11-01	Donation	66	10.00
4f4c41270acc7beecdeec57f348d681e16952d6a	2016-11-01	Donation	67	10.00
eb8f30429c12aa5232ff8424d3613d2db9b09505	2016-11-01	Donation	4	20.00
0925bf125305febc61381e482312386350f0ead3	2016-11-01	Expense	RENT	475.00
1c229799bcd615b410ff7b5499908be6bbc137e1	2016-11-01	Expense	VIRGIN_MEDIA	204.00
cc889c993251e1276faa80c960a20a7c1b3d27b5	2016-10-24	Donation	57	10.00
a080d94b05681a8b98fdb16faf741684ebb0e06a	2016-10-21	Donation	54	10.00
8165dda1715ba862151af5bca01584b333a6c569	2016-10-17	Donation	39	20.00
dc46ac447cf497914b8aaa60c2edf4cfee1b2c81	2016-10-17	Donation	52	10.00
a92e73c6aa79d58946c9a753b3084708211c8681	2016-10-11	Unknown Expense	NEIL CAUCUTT          HACKSPACE LIGHTS   BBP	198.99
974e90c962e7b94b0c8eacb281d071cc77935bf2	2016-10-07	Income	Loyalty Reward	0.33
054f906faf8eb82b74461b952f03d837075a442a	2016-10-05	Donation	9	10.00
fb09b2496628831eb3f424e1a88993a2173f7afd	2016-10-05	Expense	BANK_CHARGES	6.50
559799ee80dbacfd9febdaf4b9a8b9d6f0868ec7	2016-10-04	Donation	62	10.00
4107ed495ddfb8e12c3a4410f6d0b720394c3b5b	2016-10-03	Donation	37	30.00
24e14e0e4202aa3ccad59ccf649bd88055ea6795	2016-10-03	Donation	1	30.00
667b8f00764a939cd95a46f4ce793f09fdf2cfde	2016-10-03	Donation	10	20.00
526e1ce3291f5855a87268530d2249372c8ff18f	2016-10-03	Donation	0	60.00
f29c7eb89704d76d15e5135f489b8e7cb020b717	2016-10-03	Donation	3	20.00
a4bb7b107caf270245306fa3ef65b4505e661082	2016-10-03	Donation	60	10.00
7ae665dad2fb756f36a3e77a65bfd91b48f2e52e	2016-10-03	Donation	58	10.00
dd49f88621d6485dd0a42d68af277bba3aaa1489	2016-10-03	Donation	50	10.00
ef64f5e9aefd1214685235be8e53a458c3beed2c	2016-10-03	Donation	68	20.00
cc8d9e3e2acca76dab5bde8feaeec72386232afc	2016-10-03	Donation	51	20.00
582585a2aba0d5ff96791fcd556cd27a53c10b06	2016-10-03	Donation	6	20.00
a4723db3c662e0c86427e4b91823beebaf86916f	2016-10-03	Donation	59	10.00
3ae6c25115efac976bc169831085cf6220b28f12	2016-10-03	Donation	2	20.00
ed8c5461df34cfc3d0a6a2550f24bfd4fdbb2290	2016-10-03	Donation	14	10.00
267e00e9dbc7d74c873d73cd4ad3ce3603681006	2016-10-03	Donation	42	10.00
9498604801c4cde9ad81cb1ba8eef40f6988cf9c	2016-10-03	Donation	13	10.00
a93096f13f8e1729035474a8cbde94407f3f0054	2016-10-03	Donation	65	10.00
576e0df1ad63f7af73b8ff545beb81f80df05af5	2016-10-03	Donation	43	10.00
80ef27ed88f07e4c889e2ed0368388de79d7c9ad	2016-10-03	Donation	48	10.00
3c39af38a38b22cb2703acc5e9515aa09a1a180e	2016-10-03	Donation	67	10.00
786dc9a4ecff5a955995e6adda0cc8a6471304f4	2016-10-03	Donation	4	20.00
466cb7a4d2000f63ad4df9c67f13a1026cc2ad72	2016-10-03	Donation	66	10.00
889ddd1fcb313a3cf7d43a354a90379e8787542e	2016-10-03	Donation	19	10.00
fe18346b888fd816742fa2159634a14acf3b747c	2016-10-03	Expense	RENT	475.00
