<?xml version="1.0" encoding="UTF-8" standalone="no"?>
<!-- Created with Inkscape (http://www.inkscape.org/) -->

<svg
   xmlns:dc="http://purl.org/dc/elements/1.1/"
   xmlns:cc="http://creativecommons.org/ns#"
   xmlns:rdf="http://www.w3.org/1999/02/22-rdf-syntax-ns#"
   xmlns:svg="http://www.w3.org/2000/svg"
   xmlns="http://www.w3.org/2000/svg"
   xmlns:xlink="http://www.w3.org/1999/xlink"
   xmlns:sodipodi="http://sodipodi.sourceforge.net/DTD/sodipodi-0.dtd"
   xmlns:inkscape="http://www.inkscape.org/namespaces/inkscape"
   width="297mm"
   height="210mm"
   viewBox="0 0 1052.3622 744.09448"
   id="svg2"
   version="1.1"
   inkscape:version="0.91 r13725"
   sodipodi:docname="toilet-up.svg">
  <defs
     id="defs4" />
  <sodipodi:namedview
     id="base"
     pagecolor="#ffffff"
     bordercolor="#666666"
     borderopacity="1.0"
     inkscape:pageopacity="0.0"
     inkscape:pageshadow="2"
     inkscape:zoom="0.35"
     inkscape:cx="366.60655"
     inkscape:cy="94.706248"
     inkscape:document-units="mm"
     inkscape:current-layer="layer1"
     showgrid="false"
     inkscape:window-width="1360"
     inkscape:window-height="746"
     inkscape:window-x="0"
     inkscape:window-y="16"
     inkscape:window-maximized="0" />
  <metadata
     id="metadata7">
    <rdf:RDF>
      <cc:Work
         rdf:about="">
        <dc:format>image/svg+xml</dc:format>
        <dc:type
           rdf:resource="http://purl.org/dc/dcmitype/StillImage" />
        <dc:title />
      </cc:Work>
    </rdf:RDF>
  </metadata>
  <g
     inkscape:label="Layer 1"
     inkscape:groupmode="layer"
     id="layer1"
     transform="translate(0,-308.26772)">
    <rect
       style="fill:none;fill-opacity:0.0945946;stroke:#000000;stroke-width:10.62992126;stroke-miterlimit:4;stroke-dasharray:none;stroke-opacity:1"
       id="rect3454"
       width="987.23212"
       height="678.66071"
       x="32.767841"
       y="342.27292" />
    <image
       sodipodi:absref="/home/alaric/personal/projects/cheltenham-hackspace-admin/signs/logo.png"
       xlink:href="logo.png"
       y="350.84436"
       x="41.339272"
       id="image3451"
       style="image-rendering:optimizeQuality"
       preserveAspectRatio="none"
       height="168.75"
       width="168.75" />
    <text
       xml:space="preserve"
       style="font-style:normal;font-weight:normal;font-size:45px;line-height:125%;font-family:Sans;-inkscape-font-specification:Sans;letter-spacing:0px;word-spacing:0px;fill:#000000;fill-opacity:1;stroke:none;stroke-width:1px;stroke-linecap:butt;stroke-linejoin:miter;stroke-opacity:1"
       x="882.85712"
       y="889.50507"
       id="text4922"
       sodipodi:linespacing="125%"><tspan
         sodipodi:role="line"
         id="tspan4924"
         x="882.85712"
         y="889.50507" /></text>
    <g
       transform="translate(238.46756,-44.640765)"
       id="layer1-2"
       inkscape:label="Layer 1">
      <circle
         r="167.66055"
         cy="765.5744"
         cx="115.81815"
         id="path3447"
         style="color:#000000;clip-rule:nonzero;display:inline;overflow:visible;visibility:visible;opacity:1;isolation:auto;mix-blend-mode:normal;color-interpolation:sRGB;color-interpolation-filters:linearRGB;solid-color:#000000;solid-opacity:1;fill:none;fill-opacity:1;fill-rule:nonzero;stroke:#000000;stroke-width:2;stroke-linecap:butt;stroke-linejoin:miter;stroke-miterlimit:4;stroke-dasharray:none;stroke-dashoffset:0;stroke-opacity:1;marker:none;color-rendering:auto;image-rendering:auto;shape-rendering:auto;text-rendering:auto;enable-background:accumulate" />
      <g
         transform="translate(230.10387,-0.55155182)"
         id="g3435">
        <rect
           ry="0"
           y="697.17999"
           x="-219.94383"
           height="156.07874"
           width="81.676781"
           id="rect3644"
           style="color:#000000;clip-rule:nonzero;display:inline;overflow:visible;visibility:visible;opacity:1;isolation:auto;mix-blend-mode:normal;color-interpolation:sRGB;color-interpolation-filters:linearRGB;solid-color:#000000;solid-opacity:1;fill:#333333;fill-opacity:1;fill-rule:evenodd;stroke:none;stroke-width:1.30111766;stroke-linecap:butt;stroke-linejoin:miter;stroke-miterlimit:4;stroke-dasharray:none;stroke-dashoffset:0;stroke-opacity:1;color-rendering:auto;image-rendering:auto;shape-rendering:auto;text-rendering:auto;enable-background:accumulate" />
        <path
           inkscape:connector-curvature="0"
           id="path3646"
           d="m -179.66192,711.10417 c -5.82144,0 -10.53497,4.71352 -10.53497,10.53495 0,5.82144 4.71353,10.54294 10.53497,10.54294 5.82145,0 10.54292,-4.7215 10.54292,-10.54294 0,-5.82143 -4.72147,-10.53495 -10.54292,-10.53495 z m -15.44861,23.43931 c -5.33613,0 -9.62858,4.30039 -9.62858,9.63652 l 0,5.48613 a 4.4529601,4.4529598 0 0 0 0,0.31008 l 0,0.9223 0,34.54675 a 4.4529601,4.4529598 0 1 0 8.90504,0 l 0,-34.54675 3.00544,0 0,82.61801 a 5.7252344,5.725234 0 1 0 11.44933,0 l 0,-48.08717 3.45068,0 0,48.08717 a 5.7252344,5.725234 0 1 0 11.44933,0 l 0,-82.61801 2.9975,0 0,34.54675 a 4.4529601,4.4529598 0 1 0 8.90504,0 l 0,-35.46905 0,-5.79621 c 0,-5.33613 -4.30042,-9.63652 -9.63652,-9.63652 l -30.89726,0 z"
           style="color:#000000;font-style:normal;font-variant:normal;font-weight:normal;font-stretch:normal;font-size:medium;line-height:normal;font-family:Sans;-inkscape-font-specification:Sans;text-indent:0;text-align:start;text-decoration:none;text-decoration-line:none;letter-spacing:normal;word-spacing:normal;text-transform:none;direction:ltr;block-progression:tb;writing-mode:lr-tb;baseline-shift:baseline;text-anchor:start;display:inline;overflow:visible;visibility:visible;fill:#ffffff;fill-opacity:1;stroke:none;stroke-width:45;marker:none;enable-background:accumulate" />
      </g>
      <g
         transform="translate(18.675294,-0.55155182)"
         id="g3439">
        <rect
           style="color:#000000;clip-rule:nonzero;display:inline;overflow:visible;visibility:visible;opacity:1;isolation:auto;mix-blend-mode:normal;color-interpolation:sRGB;color-interpolation-filters:linearRGB;solid-color:#000000;solid-opacity:1;fill:#333333;fill-opacity:1;fill-rule:evenodd;stroke:none;stroke-width:1.30111766;stroke-linecap:butt;stroke-linejoin:miter;stroke-miterlimit:4;stroke-dasharray:none;stroke-dashoffset:0;stroke-opacity:1;color-rendering:auto;image-rendering:auto;shape-rendering:auto;text-rendering:auto;enable-background:accumulate"
           id="rect3650"
           width="81.676773"
           height="156.07874"
           x="121.1242"
           y="697.17999"
           ry="0" />
        <path
           inkscape:connector-curvature="0"
           id="path3652"
           d="m 161.91801,711.11605 c -5.82144,0 -10.54291,4.71352 -10.54291,10.53497 0,5.82142 4.72147,10.54292 10.54291,10.54292 5.82144,0 10.54291,-4.7215 10.54291,-10.54292 0,-5.82145 -4.72147,-10.53497 -10.54291,-10.53497 z m -6.17787,23.4393 c -5.35497,0 -9.96524,3.09838 -12.1331,7.60904 a 4.1985049,4.1985049 0 0 0 -0.85074,1.51862 l -10.24873,31.66057 a 4.1990523,4.1990523 0 1 0 7.99066,2.58403 l 9.15946,-28.28937 1.31191,0 -12.95204,52.43632 12.34778,0 0,32.34434 a 4.8346418,4.8346418 0 1 0 9.6683,0 l 0,-32.34434 3.77669,0 0,32.34434 a 4.8346418,4.8346418 0 1 0 9.66832,0 l 0,-32.34434 12.33984,0 -12.96001,-52.43632 1.3278,0 9.15946,28.28937 a 4.1990562,4.1990562 0 1 0 7.99068,-2.58403 l -10.24876,-31.66057 a 4.1985049,4.1985049 0 0 0 -0.88253,-1.55042 c -2.17194,-4.49325 -6.76699,-7.57724 -12.10924,-7.57724 l -12.35575,0 z"
           style="color:#000000;font-style:normal;font-variant:normal;font-weight:normal;font-stretch:normal;font-size:medium;line-height:normal;font-family:Sans;-inkscape-font-specification:Sans;text-indent:0;text-align:start;text-decoration:none;text-decoration-line:none;letter-spacing:normal;word-spacing:normal;text-transform:none;direction:ltr;block-progression:tb;writing-mode:lr-tb;baseline-shift:baseline;text-anchor:start;display:inline;overflow:visible;visibility:visible;fill:#ffffff;fill-opacity:1;stroke:none;stroke-width:38;marker:none;enable-background:accumulate" />
      </g>
      <rect
         ry="11.234564"
         y="644.24109"
         x="106.26878"
         height="242.66658"
         width="19.098759"
         id="rect3445"
         style="color:#000000;clip-rule:nonzero;display:inline;overflow:visible;visibility:visible;opacity:1;isolation:auto;mix-blend-mode:normal;color-interpolation:sRGB;color-interpolation-filters:linearRGB;solid-color:#000000;solid-opacity:1;fill:#333333;fill-opacity:1;fill-rule:nonzero;stroke:none;stroke-width:1;stroke-linecap:butt;stroke-linejoin:miter;stroke-miterlimit:4;stroke-dasharray:none;stroke-dashoffset:0;stroke-opacity:1;marker:none;color-rendering:auto;image-rendering:auto;shape-rendering:auto;text-rendering:auto;enable-background:accumulate" />
    </g>
    <path
       style="fill:#000000;fill-opacity:1;fill-rule:evenodd;stroke:#000000;stroke-width:0.83796626px;stroke-linecap:butt;stroke-linejoin:miter;stroke-opacity:1"
       d="m 739.67306,514.07563 -0.0493,4.36924 -121.57422,173.4555 54.11901,0 0,180.16478 74.16374,0 -0.005,-0.52001 63.5008,0 0,-180.16477 54.11901,0 -121.58656,-173.47115 -0.037,-3.31553 -1.14275,1.63235 -1.50723,-2.15041 z"
       id="path5297"
       inkscape:connector-curvature="0" />
  </g>
</svg>
